Code
…
data1 <- data1 %>%
  group_by(indic_is) %>%
  arrange(time) %>%
  ungroup()

data1

# A tibble: 43 × 6
   geo                                      unit  indic_is ind_type time  values
   <fct>                                    <fct> <fct>    <fct>    <fct>  <dbl>
 1 European Union - 27 countries (from 202… Perc… Interne… All Ind… 2014    42.3
 2 European Union - 27 countries (from 202… Perc… Interne… All Ind… 2014    51.4
 3 European Union - 27 countries (from 202… Perc… Interne… All Ind… 2014    43.6
 4 European Union - 27 countries (from 202… Perc… Interne… All Ind… 2015    43.8
 5 European Union - 27 countries (from 202… Perc… Interne… All Ind… 2015    13.5
 6 European Union - 27 countries (from 202… Perc… Interne… All Ind… 2015    52.7
 7 European Union - 27 countries (from 202… Perc… Interne… All Ind… 2015     5.1
 8 European Union - 27 countries (from 202… Perc… Interne… All Ind… 2015    47.9
 9 European Union - 27 countries (from 202… Perc… Interne… All Ind… 2016    46.3
10 European Union - 27 countries (from 202… Perc… Interne… All Ind… 2016    56.3
# ℹ 33 more rows
…
